^D:\CODE\GALLERY-STARTER\GALLERY\GALLERY\DEBUG\ALBUM.OBJ|D:\CODE\GALLERY-STARTER\GALLERY\GALLERY\DEBUG\ALBUMMANAGER.OBJ|D:\CODE\GALLERY-STARTER\GALLERY\GALLERY\DEBUG\GALLERY.OBJ|D:\CODE\GALLERY-STARTER\GALLERY\GALLERY\DEBUG\MEMORYACCESS.OBJ|D:\CODE\GALLERY-STARTER\GALLERY\GALLERY\DEBUG\PICTURE.OBJ|D:\CODE\GALLERY-STARTER\GALLERY\GALLERY\DEBUG\USER.OBJ
/OUT:"D:\CODE\GALLERY-STARTER\GALLERY\GALLERY\DEBUG\GALLERY.EXE" /INCREMENTAL /NOLOGO KERNEL32.LIB USER32.LIB GDI32.LIB WINSPOOL.LIB COMDLG32.LIB ADVAPI32.LIB SHELL32.LIB OLE32.LIB OLEAUT32.LIB UUID.LIB ODBC32.LIB ODBCCP32.LIB /MANIFEST /MANIFESTUAC:"level='asInvoker' uiAccess='false'" /manifest:embed /DEBUG /PDB:"D:\CODE\GALLERY-STARTER\GALLERY\GALLERY\DEBUG\GALLERY.PDB" /SUBSYSTEM:CONSOLE /TLBID:1 /DYNAMICBASE /NXCOMPAT /IMPLIB:"D:\CODE\GALLERY-STARTER\GALLERY\GALLERY\DEBUG\GALLERY.LIB" /MACHINE:X86 DEBUG\ALBUM.OBJDEBUG\ALBUMMANAGER.OBJDEBUG\MEMORYACCESS.OBJDEBUG\PICTURE.OBJDEBUG\USER.OBJDEBUG\GALLERY.OBJ
^C:\USERS\TOMERIQ\DOWNLOADS\GALLERY\DEBUG\ALBUM.OBJ|C:\USERS\TOMERIQ\DOWNLOADS\GALLERY\DEBUG\ALBUMMANAGER.OBJ|C:\USERS\TOMERIQ\DOWNLOADS\GALLERY\DEBUG\GALLERY.OBJ|C:\USERS\TOMERIQ\DOWNLOADS\GALLERY\DEBUG\MEMORYACCESS.OBJ|C:\USERS\TOMERIQ\DOWNLOADS\GALLERY\DEBUG\PICTURE.OBJ|C:\USERS\TOMERIQ\DOWNLOADS\GALLERY\DEBUG\USER.OBJ
/OUT:"C:\USERS\TOMERIQ\DOWNLOADS\GALLERY\DEBUG\GALLERY.EXE" /INCREMENTAL /NOLOGO KERNEL32.LIB USER32.LIB GDI32.LIB WINSPOOL.LIB COMDLG32.LIB ADVAPI32.LIB SHELL32.LIB OLE32.LIB OLEAUT32.LIB UUID.LIB ODBC32.LIB ODBCCP32.LIB /MANIFEST /MANIFESTUAC:"level='asInvoker' uiAccess='false'" /manifest:embed /DEBUG:FASTLINK /PDB:"C:\USERS\TOMERIQ\DOWNLOADS\GALLERY\DEBUG\GALLERY.PDB" /SUBSYSTEM:CONSOLE /TLBID:1 /DYNAMICBASE /NXCOMPAT /IMPLIB:"C:\USERS\TOMERIQ\DOWNLOADS\GALLERY\DEBUG\GALLERY.LIB" /MACHINE:X86 DEBUG\ALBUM.OBJDEBUG\ALBUMMANAGER.OBJDEBUG\MEMORYACCESS.OBJDEBUG\PICTURE.OBJDEBUG\USER.OBJDEBUG\GALLERY.OBJ
^C:\USERS\MAGSHIMIM\DESKTOP\GALLERY\DEBUG\ALBUM.OBJ|C:\USERS\MAGSHIMIM\DESKTOP\GALLERY\DEBUG\ALBUMMANAGER.OBJ|C:\USERS\MAGSHIMIM\DESKTOP\GALLERY\DEBUG\GALLERY.OBJ|C:\USERS\MAGSHIMIM\DESKTOP\GALLERY\DEBUG\MEMORYACCESS.OBJ|C:\USERS\MAGSHIMIM\DESKTOP\GALLERY\DEBUG\PICTURE.OBJ|C:\USERS\MAGSHIMIM\DESKTOP\GALLERY\DEBUG\USER.OBJ
/OUT:"C:\USERS\MAGSHIMIM\DESKTOP\GALLERY\DEBUG\GALLERY.EXE" /INCREMENTAL /NOLOGO KERNEL32.LIB USER32.LIB GDI32.LIB WINSPOOL.LIB COMDLG32.LIB ADVAPI32.LIB SHELL32.LIB OLE32.LIB OLEAUT32.LIB UUID.LIB ODBC32.LIB ODBCCP32.LIB /MANIFEST /MANIFESTUAC:"level='asInvoker' uiAccess='false'" /manifest:embed /DEBUG:FASTLINK /PDB:"C:\USERS\MAGSHIMIM\DESKTOP\GALLERY\DEBUG\GALLERY.PDB" /SUBSYSTEM:CONSOLE /TLBID:1 /DYNAMICBASE /NXCOMPAT /IMPLIB:"C:\USERS\MAGSHIMIM\DESKTOP\GALLERY\DEBUG\GALLERY.LIB" /MACHINE:X86 DEBUG\ALBUM.OBJDEBUG\ALBUMMANAGER.OBJDEBUG\MEMORYACCESS.OBJDEBUG\PICTURE.OBJDEBUG\USER.OBJDEBUG\GALLERY.OBJ
